[
{
 "featureType": "admin",
 "stylers": {
 "color": "#EDF1F6"}
},
{
 "featureType": "road",
 "stylers": {
 "color": "#FFFFFF",
 "outline-color": "#C4D0DF"}
},
{
 "featureType": "road",
 "zooms": "4-12",
 "stylers": {
 "color": "#A8AEBC",
 "outline-color": "#F6F6F6"}
},
{
 "featureType": "label.road",
 "stylers": {
 "color": "#6A7E96",
 "outline-color": "#FFFFFF"}
},
{
 "featureType": "building.bld_residental_0",
 "stylers": {
 "opacity": 0.75,
 "color": "#E3EAF2"}
 },
{
 "featureType": "building.bld_residental_3D_0",
 "stylers": {
 "opacity": 0.75,
 "color": "#E3EAF2"}
 },
{
 "featureType": "building.bld_industrial_0",
 "stylers": {
 "opacity": 0.75,
 "color": "#E3EAF2"}
 },
{
 "featureType": "building.bld_industrial_3D_0",
 "stylers": {
 "opacity": 0.75,
 "color": "#E3EAF2"}
 },
{
 "featureType": "building.bld_stroy_0",
 "stylers": {
 "opacity": 0.75,
 "color": "#E3EAF2"}
 },
{
 "featureType": "building.bld_stroy_3D_0",
 "stylers": {
 "opacity": 0.75,
 "color": "#E3EAF2"}
 },
{
 "featureType": "building.bld_deserted_0",
 "stylers": {
 "opacity": 0.75,
 "color": "#E3EAF2"}
 },
{
 "featureType": "building.bld_deserted_3D_0",
 "stylers": {
 "opacity": 0.75,
 "color": "#E3EAF2"}
 },

{
 "featureType": "fence",
 "stylers": {
 "opacity": 0.75,
 "color": "#E3EAF2"}
 },
{
 "featureType": "poi",
 "stylers": {
 "color": "#575F6A",
 "outline-color":"rgba(0, 0, 0, 0)"}
},
{
 "featureType": "hydro",
 "stylers": {
 "color": "#BADCFF"}
},
{
 "featureType": "vegetation",
 "stylers": {
 "color": "#D0E5C2"}
 },
{
 "featureType": "urban-area",
 "stylers": {
 "color" : "#EDF1F6" }
},
{
 "featureType": "building_number",
 "stylers": {
 "color": "#9CB1C9",
 "outline-color": "#FFFFFF"}
},
{
 "featureType": "roadnet_a",
 "stylers": {
 "color": "#EDF1F6"}
},
{
 "featureType": "urban-area.landuse_a.cemetery_0",
 "stylers": {
 "color": "#D0E5C2"}
},
{
 "featureType": "label.transport.station.metro",
 "stylers": {
 "color": "#575F6A",
 "outline-color":"rgba(0, 0, 0, 0)"}
}

]